{
  "images" : [
    {
      "filename" : "mask_group_38 (1).png",
      "idiom" : "universal",
      "scale" : "1x"
    },
    {
      "filename" : "mask_group_38 (1)@2x.png",
      "idiom" : "universal",
      "scale" : "2x"
    },
    {
      "filename" : "mask_group_38 (1)@3x.png",
      "idiom" : "universal",
      "scale" : "3x"
    }
  ],
  "info" : {
    "author" : "xcode",
    "version" : 1
  },
  "properties" : {
    "template-rendering-intent" : "template"
  }
}
